id,name,model_id:id,group_id:id,perm_read,perm_write,perm_create,perm_unlink
acl_barco,barcos_default,model_barcos,,1,0,0,0
acl_barcos_embarcaciones,barcos_embarcaciones,model_barcos,group_embarcaciones,1,1,1,1
acl_patron,patron_default,model_patron,,1,0,0,0
acl_patron_embarcaciones,patron_embarcaciones,model_patron,group_embarcaciones,1,1,1,1
acl_viaje,viajes_default,model_viajes,,1,0,0,0
acl_viaje_embarcaciones,viajes_embarcaciones,model_viajes,group_embarcaciones,1,1,1,1
